…
-   Cross Validation

``` r
Cross_validation = crossv_mc(birthweight_df, 100)

  Cross_validation %>% 
  mutate(
    train = map(train, as_tibble),
    test = map(test, as_tibble)
  )
```

    ## # A tibble: 100 × 3
    ##    train                 test                .id  
    ##    <list>                <list>              <chr>
    ##  1 <tibble [3,473 × 20]> <tibble [869 × 20]> 001  
    ##  2 <tibble [3,473 × 20]> <tibble [869 × 20]> 002  
    ##  3 <tibble [3,473 × 20]> <tibble [869 × 20]> 003  
    ##  4 <tibble [3,473 × 20]> <tibble [869 × 20]> 004  
    ##  5 <tibble [3,473 × 20]> <tibble [869 × 20]> 005  
    ##  6 <tibble [3,473 × 20]> <tibble [869 × 20]> 006  
    ##  7 <tibble [3,473 × 20]> <tibble [869 × 20]> 007  
    ##  8 <tibble [3,473 × 20]> <tibble [869 × 20]> 008  
    ##  9 <tibble [3,473 × 20]> <tibble [869 × 20]> 009  
    ## 10 <tibble [3,473 × 20]> <tibble [869 × 20]> 010  
    ## # … with 90 more rows
…
